<?xml version="1.0" encoding="UTF-8"?>
<ModuleFile xmlns:xsi="http://www.w3.org/2001/XMLSchema-instance">
	<UiMod name="SharedAssetsSquared" version="1.0" date="30/12/2008" >

		<Author name="Aiiane" email="aiiane@aiiane.net" />
		<Description text="Textures used by Squared (and possibly other addons) via LibSharedAssets." />
        
        <VersionSettings gameVersion="1.4.1" />
        
		<Files>
			<File name="LibStub.lua" />
			<File name="LibSharedAssets.lua" />
            <File name="textures\textures.xml" />
			<File name="textures\textures.lua" />
		</Files>
		
		<OnInitialize/>
		<OnUpdate/>
		<OnShutdown/>
		
	</UiMod>
</ModuleFile>
