<?xml version="1.0" encoding="UTF-8"?>
<ModuleFile xmlns:xsi="http://www.w3.org/2001/XMLSchema-instance">
	<UiMod name="SquaredSettings" version="1.0" date="20/09/2008" >

		<Author name="Aiiane" email="aiiane@aiiane.net" />
		<Description text="Stores the settings values for Squared." />
        
        <VersionSettings gameVersion="1.4.1" savedVariablesVersion="1.0" />

        
		<Dependencies>
            <Dependency name="Squared" />
        </Dependencies>
        
        <SavedVariables>
            <SavedVariable name="Squared.Settings" />
        </SavedVariables>
        
        <Files/>
		
		<OnInitialize/>
		<OnUpdate/>
		<OnShutdown/>
		
	</UiMod>
</ModuleFile>
